^C:\USERS\CARIT\SOURCE\REPOS\LABO4\DEBUG\SOURCE.OBJ
/OUT:"C:\USERS\CARIT\SOURCE\REPOS\LABO4\DEBUG\LABO4.EXE" /INCREMENTAL /NOLOGO KERNEL32.LIB USER32.LIB GDI32.LIB WINSPOOL.LIB COMDLG32.LIB ADVAPI32.LIB SHELL32.LIB OLE32.LIB OLEAUT32.LIB UUID.LIB ODBC32.LIB ODBCCP32.LIB /MANIFEST /MANIFESTUAC:"level='asInvoker' uiAccess='false'" /manifest:embed /DEBUG:FASTLINK /PDB:"C:\USERS\CARIT\SOURCE\REPOS\LABO4\DEBUG\LABO4.PDB" /SUBSYSTEM:CONSOLE /TLBID:1 /DYNAMICBASE /NXCOMPAT /IMPLIB:"C:\USERS\CARIT\SOURCE\REPOS\LABO4\DEBUG\LABO4.LIB" /MACHINE:X86 DEBUG\SOURCE.OBJ
^C:\USERS\CARIT\SOURCE\REPOS\LABO4\DEBUG\ADAPTEE.OBJ|C:\USERS\CARIT\SOURCE\REPOS\LABO4\DEBUG\ADAPTER.OBJ|C:\USERS\CARIT\SOURCE\REPOS\LABO4\DEBUG\SOURCE.OBJ|C:\USERS\CARIT\SOURCE\REPOS\LABO4\DEBUG\TARGET.OBJ
/OUT:"C:\USERS\CARIT\SOURCE\REPOS\LABO4\DEBUG\LABO4.EXE" /INCREMENTAL /NOLOGO KERNEL32.LIB USER32.LIB GDI32.LIB WINSPOOL.LIB COMDLG32.LIB ADVAPI32.LIB SHELL32.LIB OLE32.LIB OLEAUT32.LIB UUID.LIB ODBC32.LIB ODBCCP32.LIB /MANIFEST /MANIFESTUAC:"level='asInvoker' uiAccess='false'" /manifest:embed /DEBUG:FASTLINK /PDB:"C:\USERS\CARIT\SOURCE\REPOS\LABO4\DEBUG\LABO4.PDB" /SUBSYSTEM:CONSOLE /TLBID:1 /DYNAMICBASE /NXCOMPAT /IMPLIB:"C:\USERS\CARIT\SOURCE\REPOS\LABO4\DEBUG\LABO4.LIB" /MACHINE:X86 DEBUG\ADAPTEE.OBJ
DEBUG\ADAPTER.OBJ
DEBUG\SOURCE.OBJ
DEBUG\TARGET.OBJ
